{
  "accessors": [
    {
      "bufferView": 2,
      "componentType": 5126,
      "count": 37707,
      "max": [
        0.69417399168014526,
        -0.15173399448394775,
        1.9404749870300293
      ],
      "min": [
        -0.48782798647880554,
        -1.2828819751739502,
        -0.09548400342464447
      ],
      "type": "VEC3"
    },
    {
      "bufferView": 2,
      "byteOffset": 452484,
      "componentType": 5126,
      "count": 37707,
      "max": [
        0.99995923042297363,
        0.99989199638366699,
        0.99994742870330811
      ],
      "min": [
        -0.99997031688690186,
        -0.99992001056671143,
        -0.9998212456703186
      ],
      "type": "VEC3"
    },
    {
      "bufferView": 3,
      "componentType": 5126,
      "count": 37707,
      "max": [
        0.99998778104782104,
        0.99519556760787964,
        0.99999386072158813,
        1
      ],
      "min": [
        -0.99912220239639282,
        -0.99986171722412109,
        -0.99854248762130737,
        -1
      ],
      "type": "VEC4"
    },
    {
      "bufferView": 1,
      "componentType": 5126,
      "count": 37707,
      "max": [
        0.99400001764297485,
        0.56400001049041748
      ],
      "min": [
        0.0010000000474974513,
        0.0040000001899898052
      ],
      "type": "VEC2"
    },
    {
      "bufferView": 0,
      "componentType": 5125,
      "count": 37725,
      "max": [
        37706
      ],
      "min": [
        0
      ],
      "type": "SCALAR"
    },
    {
      "bufferView": 2,
      "byteOffset": 904968,
      "componentType": 5126,
      "count": 480,
      "max": [
        0.59465402364730835,
        -0.52275300025939941,
        1.7071410417556763
      ],
      "min": [
        0.58202999830245972,
        -0.56021302938461304,
        1.6789729595184326
      ],
      "type": "VEC3"
    },
    {
      "bufferView": 2,
      "byteOffset": 910728,
      "componentType": 5126,
      "count": 480,
      "max": [
        0.96087229251861572,
        0.88949048519134521,
        0.73023688793182373
      ],
      "min": [
        -0.9581153392791748,
        -0.88931018114089966,
        -0.73022377490997314
      ],
      "type": "VEC3"
    },
    {
      "bufferView": 0,
      "byteOffset": 150900,
      "componentType": 5125,
      "count": 918,
      "max": [
        479
      ],
      "min": [
        0
      ],
      "type": "SCALAR"
    }
  ],
  "asset": {
    "extras": {
      "author": "Jerrad Lancaster (https://sketchfab.com/jlancaster)",
      "license": "CC-BY-4.0 (http://creativecommons.org/licenses/by/4.0/)",
      "source": "https://sketchfab.com/models/eda83fad94894127bed0d9b30a16d3d1",
      "title": "Christmas Deer"
    },
    "generator": "Sketchfab-3.54.8-rc1",
    "version": "2.0"
  },
  "bufferViews": [
    {
      "buffer": 0,
      "byteLength": 154572,
      "byteOffset": 0,
      "name": "floatBufferViews",
      "target": 34963
    },
    {
      "buffer": 0,
      "byteLength": 301656,
      "byteOffset": 154572,
      "byteStride": 8,
      "name": "floatBufferViews",
      "target": 34962
    },
    {
      "buffer": 0,
      "byteLength": 916488,
      "byteOffset": 456228,
      "byteStride": 12,
      "name": "floatBufferViews",
      "target": 34962
    },
    {
      "buffer": 0,
      "byteLength": 603312,
      "byteOffset": 1372716,
      "byteStride": 16,
      "name": "floatBufferViews",
      "target": 34962
    }
  ],
  "buffers": [
    {
      "byteLength": 1976028,
      "uri": "scene.bin"
    }
  ],
  "extensionsUsed": [
    "KHR_materials_unlit"
  ],
  "images": [
    {
      "uri": "textures/material_baseColor.jpeg"
    }
  ],
  "materials": [
    {
      "doubleSided": true,
      "emissiveFactor": [
        0,
        0,
        0
      ],
      "extensions": {
        "KHR_materials_unlit": {}
      },
      "name": "None",
      "pbrMetallicRoughness": {
        "baseColorFactor": [
          0.80000000000000004,
          0.80000000000000004,
          0.80000000000000004,
          1
        ],
        "metallicFactor": 0,
        "roughnessFactor": 1
      }
    },
    {
      "doubleSided": true,
      "emissiveFactor": [
        0,
        0,
        0
      ],
      "extensions": {
        "KHR_materials_unlit": {}
      },
      "name": "material",
      "pbrMetallicRoughness": {
        "baseColorFactor": [
          1,
          1,
          1,
          1
        ],
        "baseColorTexture": {
          "index": 0,
          "texCoord": 0
        },
        "metallicFactor": 0,
        "roughnessFactor": 1
      }
    }
  ],
  "meshes": [
    {
      "primitives": [
        {
          "attributes": {
            "NORMAL": 1,
            "POSITION": 0,
            "TANGENT": 2,
            "TEXCOORD_0": 3
          },
          "indices": 4,
          "material": 1,
          "mode": 4
        }
      ]
    },
    {
      "primitives": [
        {
          "attributes": {
            "NORMAL": 6,
            "POSITION": 5
          },
          "indices": 7,
          "material": 0,
          "mode": 4
        }
      ]
    }
  ],
  "nodes": [
    {
      "children": [
        1
      ],
      "name": "RootNode (gltf orientation matrix)",
      "rotation": [
        -0.70710678118654746,
        -0,
        -0,
        0.70710678118654757
      ]
    },
    {
      "children": [
        2
      ],
      "name": "RootNode (model correction matrix)"
    },
    {
      "children": [
        3,
        4
      ],
      "name": "Xmas deer.obj.cleaner.materialmerger.gles"
    },
    {
      "mesh": 0,
      "name": ""
    },
    {
      "mesh": 1,
      "name": ""
    }
  ],
  "samplers": [
    {
      "magFilter": 9729,
      "minFilter": 9987,
      "wrapS": 10497,
      "wrapT": 10497
    }
  ],
  "scene": 0,
  "scenes": [
    {
      "name": "OSG_Scene",
      "nodes": [
        0
      ]
    }
  ],
  "textures": [
    {
      "sampler": 0,
      "source": 0
    }
  ]
}

